{
	"valoresterotipovaziovoidable": [
	{"value": "995", 
		"descrition": "Não aplicável",
		"definition": "Não se aplica nenhuma das opções disponíveis.",
		"lod1":false,
		"lod2":false,
		"pag":85},
	{"value": "996", 
		"descrition": "Desconhecido",
		"definition": "O valor não é conhecido.",
		"lod1":false,
		"lod2":false,
		"pag":85},
	{"value": "997", 
		"descrition": "Não preenchido",
		"definition": "O valor não faz parte do conjunto de dados geográficos.",
		"lod1":false,
		"lod2":false,
		"pag":85},
	{"value": "998", 
		"descrition": "Confidencial",
		"definition": "O valor pode existir mas é confidencial.",
		"lod1":false,
		"lod2":false,
		"pag":85}
	],
	"valoragualentica": [
	{"value": "1", 
		"descrition": "Lagoa",
		"definition": "Extensão de água, normalmente de pouca profundidade, rodeada de terra por todos os lados, que ocupa permanentemente uma depressão do terreno.",
		"lod1":true,
		"lod2":true,
		"pag":85},
	{"value": "2", 
		"descrition": "Albufeira",
		"definition": "Extensão de água junto à costa resultante da ação do mar ou lago artificial criado por barragem ou represa construída num curso de água.",
		"lod1":true,
		"lod2":true,
		"pag":85},
	{"value": "3", 
		"descrition": "Charca",
		"definition": "Escavação em terreno feita com o objetivo de captação e gestão de águas para fins agrícolas.",
		"lod1":true,
		"lod2":false,
		"pag":85}
	]
}